<svg class="arrow" width="25" height="24" viewBox="0 0 25 24" fill="none" xmlns="http://www.w3.org/2000/svg">
	<path fill-rule="evenodd" clip-rule="evenodd" d="M11.6778 16.6758C12.1319 17.1081 12.8681 17.1081 13.3222 16.6758L22.2957 8.13375C22.5681 7.87439 22.5681 7.45388 22.2957 7.19452C22.0232 6.93516 21.5815 6.93516 21.309 7.19452L12.5 15.58L3.691 7.19452C3.41855 6.93516 2.9768 6.93516 2.70434 7.19452C2.43189 7.45388 2.43189 7.87439 2.70434 8.13375L11.6778 16.6758Z" fill="#737D9B" />
</svg>
